info face="Arial Gras" size=60 bold=1 italic=0 charset="" unicode=0 stretchH=100 smooth=1 aa=1 padding=0,0,0,0 spacing=0,0
common lineHeight=70 base=56 scaleW=512 scaleH=512 pages=1 packed=0
page id=0 file="arial-bold-60pts.png"
chars count=95
char id=32   x=0     y=0     width=0     height=0     xoffset=0     yoffset=56    xadvance=17     page=0  chnl=0 
char id=64   x=0     y=0     width=58     height=60     xoffset=2     yoffset=11    xadvance=59     page=0  chnl=0 
char id=125   x=58     y=0     width=21     height=59     xoffset=2     yoffset=11    xadvance=23     page=0  chnl=0 
char id=123   x=79     y=0     width=21     height=59     xoffset=2     yoffset=11    xadvance=23     page=0  chnl=0 
char id=124   x=100     y=0     width=8     height=58     xoffset=5     yoffset=12    xadvance=17     page=0  chnl=0 
char id=106   x=108     y=0     width=19     height=58     xoffset=-3     yoffset=12    xadvance=16     page=0  chnl=0 
char id=93   x=127     y=0     width=17     height=57     xoffset=1     yoffset=12    xadvance=20     page=0  chnl=0 
char id=91   x=144     y=0     width=17     height=57     xoffset=4     yoffset=12    xadvance=20     page=0  chnl=0 
char id=41   x=161     y=0     width=17     height=57     xoffset=2     yoffset=12    xadvance=20     page=0  chnl=0 
char id=40   x=178     y=0     width=16     height=57     xoffset=3     yoffset=12    xadvance=20     page=0  chnl=0 
char id=36   x=194     y=0     width=30     height=54     xoffset=2     yoffset=9    xadvance=33     page=0  chnl=0 
char id=81   x=224     y=0     width=44     height=50     xoffset=3     yoffset=11    xadvance=47     page=0  chnl=0 
char id=37   x=268     y=0     width=48     height=48     xoffset=2     yoffset=11    xadvance=51     page=0  chnl=0 
char id=38   x=316     y=0     width=41     height=47     xoffset=2     yoffset=11    xadvance=43     page=0  chnl=0 
char id=103   x=357     y=0     width=32     height=47     xoffset=3     yoffset=23    xadvance=37     page=0  chnl=0 
char id=83   x=389     y=0     width=37     height=47     xoffset=2     yoffset=11    xadvance=40     page=0  chnl=0 
char id=79   x=426     y=0     width=43     height=47     xoffset=3     yoffset=11    xadvance=47     page=0  chnl=0 
char id=71   x=469     y=0     width=42     height=47     xoffset=3     yoffset=11    xadvance=47     page=0  chnl=0 
char id=63   x=0     y=60     width=33     height=46     xoffset=3     yoffset=11    xadvance=37     page=0  chnl=0 
char id=48   x=33     y=60     width=30     height=46     xoffset=2     yoffset=12    xadvance=33     page=0  chnl=0 
char id=57   x=63     y=60     width=30     height=46     xoffset=2     yoffset=12    xadvance=33     page=0  chnl=0 
char id=56   x=93     y=60     width=30     height=46     xoffset=2     yoffset=12    xadvance=33     page=0  chnl=0 
char id=54   x=123     y=60     width=30     height=46     xoffset=2     yoffset=12    xadvance=33     page=0  chnl=0 
char id=51   x=153     y=60     width=30     height=46     xoffset=2     yoffset=12    xadvance=33     page=0  chnl=0 
char id=121   x=183     y=60     width=32     height=46     xoffset=0     yoffset=24    xadvance=32     page=0  chnl=0 
char id=113   x=215     y=60     width=32     height=46     xoffset=3     yoffset=23    xadvance=37     page=0  chnl=0 
char id=112   x=247     y=60     width=32     height=46     xoffset=5     yoffset=23    xadvance=37     page=0  chnl=0 
char id=102   x=279     y=60     width=22     height=46     xoffset=1     yoffset=11    xadvance=20     page=0  chnl=0 
char id=100   x=301     y=60     width=32     height=46     xoffset=3     yoffset=12    xadvance=37     page=0  chnl=0 
char id=98   x=333     y=60     width=32     height=46     xoffset=5     yoffset=12    xadvance=37     page=0  chnl=0 
char id=85   x=365     y=60     width=37     height=46     xoffset=4     yoffset=12    xadvance=43     page=0  chnl=0 
char id=74   x=402     y=60     width=30     height=46     xoffset=1     yoffset=12    xadvance=33     page=0  chnl=0 
char id=67   x=432     y=60     width=38     height=46     xoffset=3     yoffset=11    xadvance=43     page=0  chnl=0 
char id=35   x=470     y=60     width=35     height=45     xoffset=0     yoffset=12    xadvance=33     page=0  chnl=0 
char id=92   x=0     y=106     width=19     height=45     xoffset=-1     yoffset=12    xadvance=17     page=0  chnl=0 
char id=47   x=19     y=106     width=19     height=45     xoffset=-1     yoffset=12    xadvance=17     page=0  chnl=0 
char id=33   x=38     y=106     width=10     height=45     xoffset=5     yoffset=12    xadvance=18     page=0  chnl=0 
char id=53   x=48     y=106     width=30     height=45     xoffset=2     yoffset=13    xadvance=33     page=0  chnl=0 
char id=50   x=78     y=106     width=30     height=45     xoffset=2     yoffset=12    xadvance=33     page=0  chnl=0 
char id=49   x=108     y=106     width=21     height=45     xoffset=5     yoffset=12    xadvance=33     page=0  chnl=0 
char id=108   x=129     y=106     width=10     height=45     xoffset=5     yoffset=12    xadvance=17     page=0  chnl=0 
char id=107   x=139     y=106     width=29     height=45     xoffset=5     yoffset=12    xadvance=33     page=0  chnl=0 
char id=105   x=168     y=106     width=10     height=45     xoffset=5     yoffset=12    xadvance=17     page=0  chnl=0 
char id=104   x=178     y=106     width=30     height=45     xoffset=5     yoffset=12    xadvance=37     page=0  chnl=0 
char id=90   x=208     y=106     width=37     height=45     xoffset=1     yoffset=12    xadvance=37     page=0  chnl=0 
char id=89   x=245     y=106     width=41     height=45     xoffset=0     yoffset=12    xadvance=40     page=0  chnl=0 
char id=88   x=286     y=106     width=41     height=45     xoffset=0     yoffset=12    xadvance=40     page=0  chnl=0 
char id=87   x=327     y=106     width=58     height=45     xoffset=0     yoffset=12    xadvance=57     page=0  chnl=0 
char id=86   x=385     y=106     width=40     height=45     xoffset=0     yoffset=12    xadvance=40     page=0  chnl=0 
char id=84   x=425     y=106     width=36     height=45     xoffset=2     yoffset=12    xadvance=37     page=0  chnl=0 
char id=82   x=461     y=106     width=39     height=45     xoffset=4     yoffset=12    xadvance=43     page=0  chnl=0 
char id=80   x=0     y=151     width=35     height=45     xoffset=4     yoffset=12    xadvance=40     page=0  chnl=0 
char id=78   x=35     y=151     width=37     height=45     xoffset=4     yoffset=12    xadvance=43     page=0  chnl=0 
char id=77   x=72     y=151     width=45     height=45     xoffset=4     yoffset=12    xadvance=51     page=0  chnl=0 
char id=76   x=117     y=151     width=33     height=45     xoffset=4     yoffset=12    xadvance=37     page=0  chnl=0 
char id=75   x=150     y=151     width=40     height=45     xoffset=4     yoffset=12    xadvance=43     page=0  chnl=0 
char id=73   x=190     y=151     width=10     height=45     xoffset=4     yoffset=12    xadvance=17     page=0  chnl=0 
char id=72   x=200     y=151     width=37     height=45     xoffset=4     yoffset=12    xadvance=43     page=0  chnl=0 
char id=70   x=237     y=151     width=32     height=45     xoffset=4     yoffset=12    xadvance=37     page=0  chnl=0 
char id=69   x=269     y=151     width=35     height=45     xoffset=4     yoffset=12    xadvance=40     page=0  chnl=0 
char id=68   x=304     y=151     width=38     height=45     xoffset=4     yoffset=12    xadvance=43     page=0  chnl=0 
char id=66   x=342     y=151     width=38     height=45     xoffset=4     yoffset=12    xadvance=43     page=0  chnl=0 
char id=65   x=380     y=151     width=44     height=45     xoffset=0     yoffset=12    xadvance=41     page=0  chnl=0 
char id=55   x=424     y=151     width=30     height=44     xoffset=2     yoffset=13    xadvance=33     page=0  chnl=0 
char id=52   x=454     y=151     width=33     height=44     xoffset=1     yoffset=13    xadvance=33     page=0  chnl=0 
char id=116   x=487     y=151     width=20     height=44     xoffset=1     yoffset=14    xadvance=20     page=0  chnl=0 
char id=59   x=0     y=196     width=11     height=43     xoffset=5     yoffset=24    xadvance=20     page=0  chnl=0 
char id=127   x=11     y=196     width=33     height=40     xoffset=7     yoffset=17    xadvance=45     page=0  chnl=0 
char id=115   x=44     y=196     width=31     height=35     xoffset=1     yoffset=23    xadvance=33     page=0  chnl=0 
char id=111   x=75     y=196     width=34     height=35     xoffset=3     yoffset=23    xadvance=37     page=0  chnl=0 
char id=101   x=109     y=196     width=31     height=35     xoffset=2     yoffset=23    xadvance=33     page=0  chnl=0 
char id=99   x=140     y=196     width=29     height=35     xoffset=3     yoffset=23    xadvance=33     page=0  chnl=0 
char id=97   x=169     y=196     width=30     height=35     xoffset=2     yoffset=23    xadvance=33     page=0  chnl=0 
char id=62   x=199     y=196     width=31     height=34     xoffset=2     yoffset=18    xadvance=35     page=0  chnl=0 
char id=60   x=230     y=196     width=31     height=34     xoffset=2     yoffset=18    xadvance=35     page=0  chnl=0 
char id=117   x=261     y=196     width=30     height=34     xoffset=5     yoffset=24    xadvance=37     page=0  chnl=0 
char id=114   x=291     y=196     width=21     height=34     xoffset=5     yoffset=23    xadvance=23     page=0  chnl=0 
char id=110   x=312     y=196     width=30     height=34     xoffset=5     yoffset=23    xadvance=37     page=0  chnl=0 
char id=109   x=342     y=196     width=46     height=34     xoffset=5     yoffset=23    xadvance=53     page=0  chnl=0 
char id=58   x=388     y=196     width=10     height=33     xoffset=6     yoffset=24    xadvance=20     page=0  chnl=0 
char id=122   x=398     y=196     width=30     height=33     xoffset=1     yoffset=24    xadvance=30     page=0  chnl=0 
char id=120   x=428     y=196     width=34     height=33     xoffset=0     yoffset=24    xadvance=33     page=0  chnl=0 
char id=119   x=0     y=239     width=50     height=33     xoffset=0     yoffset=24    xadvance=49     page=0  chnl=0 
char id=118   x=50     y=239     width=34     height=33     xoffset=0     yoffset=24    xadvance=33     page=0  chnl=0 
char id=43   x=84     y=239     width=31     height=31     xoffset=2     yoffset=20    xadvance=35     page=0  chnl=0 
char id=94   x=115     y=239     width=29     height=25     xoffset=3     yoffset=11    xadvance=35     page=0  chnl=0 
char id=42   x=144     y=239     width=22     height=22     xoffset=1     yoffset=12    xadvance=23     page=0  chnl=0 
char id=61   x=166     y=239     width=32     height=21     xoffset=2     yoffset=24    xadvance=35     page=0  chnl=0 
char id=44   x=198     y=239     width=11     height=20     xoffset=3     yoffset=47    xadvance=17     page=0  chnl=0 
char id=39   x=209     y=239     width=10     height=17     xoffset=3     yoffset=12    xadvance=14     page=0  chnl=0 
char id=34   x=219     y=239     width=24     height=17     xoffset=3     yoffset=12    xadvance=28     page=0  chnl=0 
char id=126   x=243     y=239     width=33     height=13     xoffset=2     yoffset=29    xadvance=35     page=0  chnl=0 
char id=96   x=276     y=239     width=14     height=11     xoffset=1     yoffset=12    xadvance=20     page=0  chnl=0 
char id=46   x=290     y=239     width=10     height=10     xoffset=4     yoffset=47    xadvance=17     page=0  chnl=0 
char id=45   x=300     y=239     width=18     height=9     xoffset=3     yoffset=37    xadvance=20     page=0  chnl=0 
char id=95   x=318     y=239     width=36     height=8     xoffset=-1     yoffset=61    xadvance=33     page=0  chnl=0 
