4;4;12;3;testCircuit1
0;0;Tile30;11
1;0;Tile10;0
2;0;Tile10;1
3;0;Tile40;2
0;1;Tile00;10
1;1;Tile20;-1
2;1;Tile20;-1
3;1;Tile00;3
0;2;Tile00;9
1;2;Tile20;-1
2;2;Tile20;-1
3;2;Tile00;5
0;3;Tile31;8
1;3;Tile10;7
2;3;Tile10;6
3;3;Tile41;4
