8;7;18;3;testCircuit3
0;0;Tile20;-1
1;0;Tile20;-1
2;0;Tile20;-1
3;0;Tile20;-1
4;0;Tile20;-1
5;0;Tile20;-1
6;0;Tile20;-1
7;0;Tile20;-1
0;1;Tile20;-1
1;1;Tile20;-1
2;1;Tile30;9
3;1;Tile10;8
4;1;Tile10;7
5;1;Tile10;6
6;1;Tile40;5
7;1;Tile20;-1
0;2;Tile20;-1
1;2;Tile30;11
2;2;Tile41;10
3;2;Tile20;-1
4;2;Tile20;-1
5;2;Tile20;-1
6;2;Tile00;4
7;2;Tile20;-1
0;3;Tile20;-1
1;3;Tile00;12
2;3;Tile20;-1
3;3;Tile20;-1
4;3;Tile30;1
5;3;Tile10;2
6;3;Tile41;3
7;3;Tile20;-1
0;4;Tile20;-1
1;4;Tile00;13
2;4;Tile20;-1
3;4;Tile20;-1
4;4;Tile00;0
5;4;Tile20;-1
6;4;Tile20;-1
7;4;Tile20;-1
0;5;Tile20;-1
1;5;Tile31;14
2;5;Tile10;15
3;5;Tile10;16
4;5;Tile41;17
5;5;Tile20;-1
6;5;Tile20;-1
7;5;Tile20;-1
0;6;Tile20;-1
1;6;Tile20;-1
2;6;Tile20;-1
3;6;Tile20;-1
4;6;Tile20;-1
5;6;Tile20;-1
6;6;Tile20;-1
7;6;Tile20;-1
